{
 "name": "flare",
 "children": [
  {
   "name": "by",
   "icon": "images/adjudicacion.png",
   "children": [
    {
     "name": "cluster",
     "children": [
      {"name": "", "size": 3938, "icon": "images/adjudicacion.png"},
      {"name": "CommunityStructure", "size": 3812},
      {"name": "", "size": 6714, "icon": "images/adjudicacion.png"},
      {"name": "MergeEdge", "size": 743}
     ]
    },
    {
     "name": "graph",
     "children": [
      {"name": "BetweennessCentrality", "size": 3534},
      {"name": "LinkDistance", "size": 5731},
      {"name": "MaxFlowMinCut", "size": 7840},
      {"name": "ShortestPaths", "size": 5914},
      {"name": "SpanningTree", "size": 3416}
     ]
    },
    {
     "name": "",
     "icon": "images/adjudicacion.png",
     "children": [
      {"name": "AspectRatioBanker", "size": 7074}
     ]
    }
   ]
  },
  {
   "name": "animate",
   "children": [
    {"name": "Easing", "size": 17010},
    {"name": "FunctionSequence", "size": 5842},
    {
     "name": "interpolate",
     "children": [
      {"name": "ArrayInterpolator", "size": 1983},
      {"name": "ColorInterpolator", "size": 2047},
      {"name": "DateInterpolator", "size": 1375},
      {"name": "Interpolator", "size": 8746}
     ]
    },
    {"name": "ISchedulable", "size": 1041},
    {"name": "Parallel", "size": 5176},
    {"name": "Pause", "size": 449},
    {"name": "Scheduler", "size": 5593}
   ]
  },
  {
   "name": "data",
   "children": [
    {
     "name": "converters",
     "children": [
      {"name": "Converters", "size": 721},
      {"name": "DelimitedTextConverter", "size": 4294},
      {"name": "GraphMLConverter", "size": 9800}
     ]
    },
    {"name": "DataField", "size": 1759},
    {"name": "DataSchema", "size": 2165},
    {"name": "DataSet", "size": 586}
   ]
  },
  {
   "name": "display",
   "children": [
    {"name": "DirtySprite", "size": 8833},
    {"name": "LineSprite", "size": 1732},
    {"name": "RectSprite", "size": 3623},
    {"name": "TextSprite", "size": 10066}
   ]
  },
  {
   "name": "flex",
   "children": [
    {"name": "FlareVis", "size": 4116}
   ]
  },
  {
   "name": "physics",
   "children": [
    {"name": "DragForce", "size": 1082},
    {"name": "GravityForce", "size": 1336},
    {"name": "IForce", "size": 319},
    {"name": "NBodyForce", "size": 10498},
    {"name": "Particle", "size": 2822},
    {"name": "Simulation", "size": 9983},
    {"name": "Spring", "size": 2213},
    {"name": "SpringForce", "size": 1681}
   ]
  },
  {
   "name": "query",
   "children": [
    {"name": "AggregateExpression", "size": 1616},
    {"name": "And", "size": 1027},
    {"name": "Arithmetic", "size": 3891},
    {"name": "Average", "size": 891},
    {"name": "Maximum", "size": 843},
    {
     "name": "methods",
     "children": [
      {"name": "add", "size": 593},
      {"name": "and", "size": 330},
      {"name": "average", "size": 287},
      {"name": "count", "size": 277},
      {"name": "distinct", "size": 292},
      {"name": "orderby", "size": 307},
      {"name": "range", "size": 772},
      {"name": "select", "size": 296},
      {"name": "stddev", "size": 363},
      {"name": "xor", "size": 354},
      {"name": "_", "size": 264}
     ]
    },
    {"name": "Minimum", "size": 843},
    {"name": "Not", "size": 1554},
    {"name": "Or", "size": 970},
    {"name": "Query", "size": 13896},
    {"name": "Range", "size": 1594}
   ]
  }
 ]
}