[
  {
    "valor": "ASUNCION",
    "cantidad": 6
  },
  {
    "valor": "ALTO PARAGUAY",
    "cantidad": 5
  },
  {
    "valor": "ALTO PARANA",
    "cantidad": 0
  },
  {
    "valor": "AMAMBAY",
    "cantidad": 10
  },
  {
    "valor": "BOQUERON",
    "cantidad": 0
  },
  {
    "valor": "CAAGUAZA",
    "cantidad": 0
  },
  {
    "valor": "CAAZAPA",
    "cantidad": 2
  },
  {
    "valor": "CANINDEYU",
    "cantidad": 0
  },
  {
    "valor": "CENTRAL",
    "cantidad": 0
  },
  {
    "valor": "CONCEPCION",
    "cantidad": 5
  },
  {
    "valor": "CORDILLERA",
    "cantidad": 0
  },
  {
    "valor": "GUAIRA",
    "cantidad": 0
  },
  {
    "valor": "ITAPUA",
    "cantidad": 6
  },
  {
    "valor": "MISIONES",
    "cantidad": 11
  },
  {
    "valor": "NEEMBUCU",
    "cantidad": 0
  },
  {
    "valor": "PARAGUARI",
    "cantidad": 0
  },
  {
    "valor": "PRESIDENTE HAYES",
    "cantidad": 0
  },
  {
    "valor": "SAN PEDRO",
    "cantidad": 4
  },
  {
    "valor": "DESDE EL EXTERIOR",
    "cantidad": 11
  }
]