[
  {
    "valor": "ASUNCION",
    "cantidad": 6
  },
  {
    "valor": "FUERTE OLIMPO",
    "cantidad": 0
  },
  {
    "valor": "BAHIA NEGRA",
    "cantidad": 0
  },
  {
    "valor": "CARMELO PERALTA",
    "cantidad": 0
  },
  {
    "valor": "PUERTO CASADO",
    "cantidad": 0
  },
  {
    "valor": "MAYOR P. LAGERENZA",
    "cantidad": 0
  },
  {
    "valor": "CIUDAD DEL ESTE",
    "cantidad": 0
  },
  {
    "valor": "NACUNDAY",
    "cantidad": 0
  },
  {
    "valor": "DOMINGO MARTINEZ DE IRALA",
    "cantidad": 0
  },
  {
    "valor": "DR. JUAN LEON MALLORQUIN",
    "cantidad": 0
  },
  {
    "valor": "DR. RAUL PENA",
    "cantidad": 0
  },
  {
    "valor": "HERNANDARIAS",
    "cantidad": 0
  },
  {
    "valor": "IRUA",
    "cantidad": 0
  },
  {
    "valor": "ITAKYRY",
    "cantidad": 0
  },
  {
    "valor": "JUAN E. OLEARY",
    "cantidad": 0
  },
  {
    "valor": "LOS CEDRALES",
    "cantidad": 0
  },
  {
    "valor": "MBARACAYU",
    "cantidad": 0
  },
  {
    "valor": "MINGA GUAZU",
    "cantidad": 0
  },
  {
    "valor": "MINGA PORA",
    "cantidad": 0
  },
  {
    "valor": "NARANJAL",
    "cantidad": 0
  },
  {
    "valor": "PRESIDENTE FRANCO",
    "cantidad": 0
  },
  {
    "valor": "SAN ALBERTO",
    "cantidad": 0
  },
  {
    "valor": "SAN CRISTOBAL",
    "cantidad": 0
  },
  {
    "valor": "SANTA FE DEL PARANA",
    "cantidad": 0
  },
  {
    "valor": "SANTA RITA",
    "cantidad": 0
  },
  {
    "valor": "SANTA ROSA DEL MONDAY",
    "cantidad": 0
  },
  {
    "valor": "TAVAPY",
    "cantidad": 0
  },
  {
    "valor": "YGUAZU",
    "cantidad": 0
  },
  {
    "valor": "CAPITAN BADO",
    "cantidad": 0
  },
  {
    "valor": "PEDRO JUAN CABALLERO",
    "cantidad": 0
  },
  {
    "valor": "ZANJA PYTA",
    "cantidad": 0
  },
  {
    "valor": "DR. PEDRO P.PEA±A",
    "cantidad": 0
  },
  {
    "valor": "FILADELFIA",
    "cantidad": 0
  },
  {
    "valor": "FERNHEIN",
    "cantidad": 0
  },
  {
    "valor": "GRAL. E. A.GARAY",
    "cantidad": 0
  },
  {
    "valor": "LOMA PLATA",
    "cantidad": 0
  },
  {
    "valor": "MARISCAL ESTIGARRIBIA",
    "cantidad": 0
  },
  {
    "valor": "3 DE FEBRERO",
    "cantidad": 0
  },
  {
    "valor": "MENNO",
    "cantidad": 0
  },
  {
    "valor": "NEULAND",
    "cantidad": 0
  },
  {
    "valor": "CAAGUAZU",
    "cantidad": 0
  },
  {
    "valor": "CARAYAO",
    "cantidad": 0
  },
  {
    "valor": "CECILIO BAEZ",
    "cantidad": 0
  },
  {
    "valor": "CORONEL OVIEDO",
    "cantidad": 0
  },
  {
    "valor": "DR. J. EULOGIO ESTIGARRIBIA",
    "cantidad": 0
  },
  {
    "valor": "DR. JUAN MANUEL FRUTOS",
    "cantidad": 0
  },
  {
    "valor": "JOSE DOMINGO OCAMPOS",
    "cantidad": 0
  },
  {
    "valor": "LA PASTORA",
    "cantidad": 0
  },
  {
    "valor": "MARISCAL FRANCISCO SOLANO LOPEZ",
    "cantidad": 0
  },
  {
    "valor": "NUEVA LONDRES",
    "cantidad": 0
  },
  {
    "valor": "NUEVA TOLEDO",
    "cantidad": 0
  },
  {
    "valor": "RAUL ARSENIO OVIEDO",
    "cantidad": 0
  },
  {
    "valor": "REPATRIACION",
    "cantidad": 0
  },
  {
    "valor": "R.I. 3 CORRALES",
    "cantidad": 0
  },
  {
    "valor": "SAN JOAQUIN",
    "cantidad": 0
  },
  {
    "valor": "SAN JOSE DE LOS ARROYOS",
    "cantidad": 0
  },
  {
    "valor": "SANTA ROSA DEL MBUTUY",
    "cantidad": 0
  },
  {
    "valor": "SIMON BOLIVAR",
    "cantidad": 0
  },
  {
    "valor": "TEMBIAPORA",
    "cantidad": 0
  },
  {
    "valor": "VAQUERIA",
    "cantidad": 0
  },
  {
    "valor": "YHU",
    "cantidad": 0
  },
  {
    "valor": "3 DE MAYO",
    "cantidad": 0
  },
  {
    "valor": "ABAI",
    "cantidad": 0
  },
  {
    "valor": "BUENA VISTA",
    "cantidad": 0
  },
  {
    "valor": "CAAZAPA",
    "cantidad": 0
  },
  {
    "valor": "DR. MOISES BERTONI",
    "cantidad": 0
  },
  {
    "valor": "FULGENCIO YEGROS",
    "cantidad": 0
  },
  {
    "valor": "GENERAL HIGINIO MORINIGO",
    "cantidad": 0
  },
  {
    "valor": "MACIEL",
    "cantidad": 0
  },
  {
    "valor": "SAN JUAN NEPOMUCENO",
    "cantidad": 0
  },
  {
    "valor": "TAVAI",
    "cantidad": 0
  },
  {
    "valor": "YUTY",
    "cantidad": 0
  },
  {
    "valor": "CORPUS CHRISTI",
    "cantidad": 0
  },
  {
    "valor": "CURUGUATY",
    "cantidad": 0
  },
  {
    "valor": "FRANCISCO CABALLERO ALVAREZ",
    "cantidad": 0
  },
  {
    "valor": "ITANARA",
    "cantidad": 0
  },
  {
    "valor": "LA PALOMA",
    "cantidad": 0
  },
  {
    "valor": "KATUETE",
    "cantidad": 0
  },
  {
    "valor": "NUEVA ESPERANZA",
    "cantidad": 0
  },
  {
    "valor": "SALTOS DEL GUAIRA",
    "cantidad": 0
  },
  {
    "valor": "VILLA YGATIMI",
    "cantidad": 0
  },
  {
    "valor": "YASY KA Y",
    "cantidad": 0
  },
  {
    "valor": "YBY PYTA",
    "cantidad": 0
  },
  {
    "valor": "YBYRAROBANA",
    "cantidad": 0
  },
  {
    "valor": "YPEJHU",
    "cantidad": 0
  },
  {
    "valor": "AREGUA",
    "cantidad": 0
  },
  {
    "valor": "CAPIATA",
    "cantidad": 0
  },
  {
    "valor": "A‘EMBY",
    "cantidad": 0
  },
  {
    "valor": "FERNANDO DE LA MORA",
    "cantidad": 0
  },
  {
    "valor": "GUARAMBARE",
    "cantidad": 0
  },
  {
    "valor": "ITA",
    "cantidad": 0
  },
  {
    "valor": "ITAUGUA",
    "cantidad": 0
  },
  {
    "valor": "J AUGUSTO SALDIVAR",
    "cantidad": 0
  },
  {
    "valor": "LAMBARE",
    "cantidad": 0
  },
  {
    "valor": "LIMPIO",
    "cantidad": 0
  },
  {
    "valor": "LUQUE",
    "cantidad": 0
  },
  {
    "valor": "MARIANO ROQUE ALONSO",
    "cantidad": 0
  },
  {
    "valor": "SAN ANTONIO",
    "cantidad": 0
  },
  {
    "valor": "NUEVA ITALIA",
    "cantidad": 0
  },
  {
    "valor": "SAN LOENZO",
    "cantidad": 0
  },
  {
    "valor": "VILLA ELISA",
    "cantidad": 0
  },
  {
    "valor": "VILLETA",
    "cantidad": 0
  },
  {
    "valor": "YPACARAI",
    "cantidad": 0
  },
  {
    "valor": "YPANE",
    "cantidad": 0
  },
  {
    "valor": "AZOTEY",
    "cantidad": 0
  },
  {
    "valor": "BELEN",
    "cantidad": 0
  },
  {
    "valor": "CONCEPCION",
    "cantidad": 0
  },
  {
    "valor": "HORQUETA",
    "cantidad": 0
  },
  {
    "valor": "LORETO",
    "cantidad": 0
  },
  {
    "valor": "SAN ALFREDO",
    "cantidad": 0
  },
  {
    "valor": "PASO BARRETO",
    "cantidad": 0
  },
  {
    "valor": "SAN LAZARO",
    "cantidad": 0
  },
  {
    "valor": "SAN CARLOS",
    "cantidad": 0
  },
  {
    "valor": "SGTO. JOSE FELIX LOPEZ",
    "cantidad": 0
  },
  {
    "valor": "YBY YAU",
    "cantidad": 0
  },
  {
    "valor": "VALLEMI",
    "cantidad": 0
  },
  {
    "valor": "ALTOS",
    "cantidad": 0
  },
  {
    "valor": "ARROYOS Y ESTEROS",
    "cantidad": 0
  },
  {
    "valor": "ATYRA",
    "cantidad": 0
  },
  {
    "valor": "CAACUPE",
    "cantidad": 0
  },
  {
    "valor": "CARAGUATAY",
    "cantidad": 0
  },
  {
    "valor": "EMBOSCADA",
    "cantidad": 0
  },
  {
    "valor": "EUSEBIO AYALA",
    "cantidad": 0
  },
  {
    "valor": "ISLA PUCU",
    "cantidad": 0
  },
  {
    "valor": "ITACURUBI DE LA CORDILLERA",
    "cantidad": 0
  },
  {
    "valor": "JUAN DE MENA",
    "cantidad": 0
  },
  {
    "valor": "MBOCAYATY DEL YHAGUY",
    "cantidad": 0
  },
  {
    "valor": "LOMA GRANDE",
    "cantidad": 0
  },
  {
    "valor": "PIRIBEBUY",
    "cantidad": 0
  },
  {
    "valor": "NUEVA COLOMBIA",
    "cantidad": 0
  },
  {
    "valor": "PRIMERO DE MARZO",
    "cantidad": 0
  },
  {
    "valor": "SAN JOSE OBRERO",
    "cantidad": 0
  },
  {
    "valor": "SAN BERNARDINO",
    "cantidad": 0
  },
  {
    "valor": "TOBATI",
    "cantidad": 0
  },
  {
    "valor": "SANTA ELENA",
    "cantidad": 0
  },
  {
    "valor": "VALENZUELA",
    "cantidad": 0
  },
  {
    "valor": "BORJA",
    "cantidad": 0
  },
  {
    "valor": "COLONIA INDEPENDENCIA",
    "cantidad": 0
  },
  {
    "valor": "CORONEL MARTINEZ",
    "cantidad": 0
  },
  {
    "valor": "A‘UMI",
    "cantidad": 0
  },
  {
    "valor": "DR. BOTTRELL",
    "cantidad": 0
  },
  {
    "valor": "FELIX PEREZ CARDOZO",
    "cantidad": 0
  },
  {
    "valor": "GENERAL EUGENIO A. GARAY",
    "cantidad": 0
  },
  {
    "valor": "ITAPE",
    "cantidad": 0
  },
  {
    "valor": "ITURBE",
    "cantidad": 0
  },
  {
    "valor": "JOSE FASSARDI",
    "cantidad": 0
  },
  {
    "valor": "MAURICIO JOSE TROCHE",
    "cantidad": 0
  },
  {
    "valor": "MBOCAYATY",
    "cantidad": 0
  },
  {
    "valor": "NATALICIO TALAVERA",
    "cantidad": 0
  },
  {
    "valor": "PASO YOBAI",
    "cantidad": 0
  },
  {
    "valor": "SAN SALVADOR",
    "cantidad": 0
  },
  {
    "valor": "VILLARRICA",
    "cantidad": 0
  },
  {
    "valor": "TEBICUARY",
    "cantidad": 0
  },
  {
    "valor": "YATAITY",
    "cantidad": 0
  },
  {
    "valor": "ALTO VERA",
    "cantidad": 0
  },
  {
    "valor": "BELLA VISTA",
    "cantidad": 0
  },
  {
    "valor": "CAMBYRETA",
    "cantidad": 0
  },
  {
    "valor": "CAPITAN MEZA",
    "cantidad": 0
  },
  {
    "valor": "CAPITAN MIRANDA",
    "cantidad": 0
  },
  {
    "valor": "CARLOS ANTONIO LOPEZ",
    "cantidad": 0
  },
  {
    "valor": "CORONEL BOGADO",
    "cantidad": 0
  },
  {
    "valor": "CARMEN DEL PARANA",
    "cantidad": 0
  },
  {
    "valor": "EDELIRA",
    "cantidad": 0
  },
  {
    "valor": "ENCARNACION",
    "cantidad": 0
  },
  {
    "valor": "FRAM",
    "cantidad": 0
  },
  {
    "valor": "GENERAL ARTIGAS",
    "cantidad": 0
  },
  {
    "valor": "GENERAL DELGADO",
    "cantidad": 0
  },
  {
    "valor": "HOHENAU",
    "cantidad": 0
  },
  {
    "valor": "ITAPUA POTY",
    "cantidad": 0
  },
  {
    "valor": "JESUS",
    "cantidad": 0
  },
  {
    "valor": "LEANDRO OVIEDO",
    "cantidad": 0
  },
  {
    "valor": "MAYOR OTAA±O",
    "cantidad": 0
  },
  {
    "valor": "LA PAZ",
    "cantidad": 0
  },
  {
    "valor": "NATALIO",
    "cantidad": 0
  },
  {
    "valor": "NUEVA ALBORADA",
    "cantidad": 0
  },
  {
    "valor": "OBLIGADO",
    "cantidad": 0
  },
  {
    "valor": "PIRAPO",
    "cantidad": 0
  },
  {
    "valor": "SAN COSME",
    "cantidad": 0
  },
  {
    "valor": "SAN PEDRO DEL PARANA",
    "cantidad": 0
  },
  {
    "valor": "SAN JUAN DEL PARANA",
    "cantidad": 0
  },
  {
    "valor": "SAN RAFAEL DEL PARANA",
    "cantidad": 0
  },
  {
    "valor": "TOMAS ROMERO PEREIRA",
    "cantidad": 0
  },
  {
    "valor": "TRINIDAD",
    "cantidad": 0
  },
  {
    "valor": "YATYTAY",
    "cantidad": 0
  },
  {
    "valor": "AYOLAS",
    "cantidad": 0
  },
  {
    "valor": "SAN IGNACIO",
    "cantidad": 0
  },
  {
    "valor": "SAN JUAN BAUTISTA",
    "cantidad": 0
  },
  {
    "valor": "SAN MIGUEL",
    "cantidad": 1
  },
  {
    "valor": "SAN PATRICIO",
    "cantidad": 0
  },
  {
    "valor": "SANTA MARIA",
    "cantidad": 0
  },
  {
    "valor": "SANTA ROSA",
    "cantidad": 0
  },
  {
    "valor": "SANTIAGO",
    "cantidad": 0
  },
  {
    "valor": "VILLA FLORIDA",
    "cantidad": 0
  },
  {
    "valor": "YABEBYRY",
    "cantidad": 0
  },
  {
    "valor": "ALBERDI",
    "cantidad": 0
  },
  {
    "valor": "CERRITO",
    "cantidad": 0
  },
  {
    "valor": "DESMOCHADOS",
    "cantidad": 0
  },
  {
    "valor": "GENERAL DIAZ",
    "cantidad": 0
  },
  {
    "valor": "GUAZU CUA",
    "cantidad": 0
  },
  {
    "valor": "HUMAITA",
    "cantidad": 0
  },
  {
    "valor": "ISLA UMBU",
    "cantidad": 0
  },
  {
    "valor": "LOS LAURELES",
    "cantidad": 0
  },
  {
    "valor": "PILAR",
    "cantidad": 0
  },
  {
    "valor": "MAYOR MARTINEZ",
    "cantidad": 0
  },
  {
    "valor": "PASO DE PATRIA",
    "cantidad": 0
  },
  {
    "valor": "TACUARAS",
    "cantidad": 0
  },
  {
    "valor": "SAN JUAN BAUTISTA DE A‘EEMBUCU",
    "cantidad": 0
  },
  {
    "valor": "VILLA FRANCA",
    "cantidad": 0
  },
  {
    "valor": "VILLALBIN",
    "cantidad": 0
  },
  {
    "valor": "VILLA OLIVA",
    "cantidad": 0
  },
  {
    "valor": "ACAHAY",
    "cantidad": 0
  },
  {
    "valor": "CAAPUCU",
    "cantidad": 0
  },
  {
    "valor": "CARAPEGUA",
    "cantidad": 0
  },
  {
    "valor": "ESCOBAR",
    "cantidad": 0
  },
  {
    "valor": "GENERAL BERNARDINO CABALLERO",
    "cantidad": 0
  },
  {
    "valor": "MBUYAPEY",
    "cantidad": 0
  },
  {
    "valor": "LA COLMENA",
    "cantidad": 0
  },
  {
    "valor": "PARAGUARI",
    "cantidad": 0
  },
  {
    "valor": "QUIINDY",
    "cantidad": 0
  },
  {
    "valor": "PIRAYU",
    "cantidad": 0
  },
  {
    "valor": "QUYQUYHO",
    "cantidad": 0
  },
  {
    "valor": "SAN ROQUE GONZALEZ",
    "cantidad": 0
  },
  {
    "valor": "SAPUCAI",
    "cantidad": 0
  },
  {
    "valor": "TEBICUARY-MI",
    "cantidad": 0
  },
  {
    "valor": "YAGUARON",
    "cantidad": 0
  },
  {
    "valor": "YBYCUI",
    "cantidad": 0
  },
  {
    "valor": "YVYTIMI",
    "cantidad": 0
  },
  {
    "valor": "BENJAMIN ACEVAL",
    "cantidad": 0
  },
  {
    "valor": "GENERAL JOSE MARIA BRUGUEZ",
    "cantidad": 0
  },
  {
    "valor": "JOSE FALCON",
    "cantidad": 0
  },
  {
    "valor": "POZO COLORADO",
    "cantidad": 0
  },
  {
    "valor": "PUERTO PINASCO",
    "cantidad": 0
  },
  {
    "valor": "NANAWA",
    "cantidad": 0
  },
  {
    "valor": "TTE 1RO MANUEL IRALA FERNANDEZ",
    "cantidad": 0
  },
  {
    "valor": "VILLA HAYES",
    "cantidad": 0
  },
  {
    "valor": "TTE. ESTEBAN MARTINEZ",
    "cantidad": 0
  },
  {
    "valor": "25 DE DICIEMBRE",
    "cantidad": 0
  },
  {
    "valor": "ANTEQUERA",
    "cantidad": 0
  },
  {
    "valor": "CAPIIBARY",
    "cantidad": 0
  },
  {
    "valor": "CHORE",
    "cantidad": 0
  },
  {
    "valor": "GENERAL ELIZARDO AQUINO",
    "cantidad": 0
  },
  {
    "valor": "GENERAL RESQUIN",
    "cantidad": 0
  },
  {
    "valor": "GUAJAYVI",
    "cantidad": 0
  },
  {
    "valor": "ITACURUBI DEL ROSARIO",
    "cantidad": 0
  },
  {
    "valor": "LIBERACION",
    "cantidad": 0
  },
  {
    "valor": "LIMA",
    "cantidad": 0
  },
  {
    "valor": "SAN ESTANISLAO",
    "cantidad": 0
  },
  {
    "valor": "NUEVA GERMANIA",
    "cantidad": 0
  },
  {
    "valor": "SAN PABLO",
    "cantidad": 0
  },
  {
    "valor": "SAN PEDRO DEL YKUAMANDIYU",
    "cantidad": 0
  },
  {
    "valor": "SANTA ROSA DEL AGUARAY",
    "cantidad": 0
  },
  {
    "valor": "TACUATI",
    "cantidad": 0
  },
  {
    "valor": "VILLA DEL ROSARIO",
    "cantidad": 4
  },
  {
    "valor": "UNION",
    "cantidad": 0
  },
  {
    "valor": "YATAITY DEL NORTE",
    "cantidad": 0
  },
  {
    "valor": "YRYVU CUA",
    "cantidad": 0
  },
  {
    "valor": "DESDE EL EXTERIOR",
    "cantidad": 11
  }
]